…
    ## [1] "Low income"          "Upper middle income" "High income"        
    ## [4] "Lower middle income"

## Calculating data with mean values

``` r
df <- get_data(dat, income_grp[1], is.mean = T)

dat[dat$IncomeGroup == income_grp[1], c("year","inv.value")]
```

    ## # A tibble: 43 × 2
    ##     year inv.value
    ##    <dbl>     <dbl>
    ##  1  2013      6.55
    ##  2  2014      7.13
    ##  3  2019      4.38
    ##  4  2014     14.6 
    ##  5  2019     25.4 
    ##  6  2019      3.39
    ##  7    NA     NA   
    ##  8    NA     NA   
    ##  9    NA     NA   
    ## 10    NA     NA   
    ## # … with 33 more rows
…
